<svg width="35" height="31" viewBox="0 0 35 31" fill="none" xmlns="http://www.w3.org/2000/svg">
<path d="M34.3371 15.4741C34.3371 24.0202 26.6505 30.9482 17.1685 30.9482C7.68659 30.9482 0 24.0202 0 15.4741C0 6.92797 7.68659 0 17.1685 0C26.6505 0 34.3371 6.92797 34.3371 15.4741ZM15.1827 23.6675L27.9206 12.1867C28.3531 11.7969 28.3531 11.1647 27.9206 10.7749L26.3542 9.36308C25.9216 8.97317 25.2203 8.97317 24.7877 9.36308L14.3994 18.726L9.54937 14.3547C9.11684 13.9648 8.41549 13.9648 7.98288 14.3547L6.41646 15.7665C5.98393 16.1563 5.98393 16.7885 6.41646 17.1783L13.6162 23.6674C14.0488 24.0574 14.7501 24.0574 15.1827 23.6675Z" fill="#D2D5CE"/>
</svg>
