<svg width="29" height="28" viewBox="0 0 29 28" fill="none" xmlns="http://www.w3.org/2000/svg">
<path d="M14.5 0C6.48992 0 0 6.06332 0 13.5469C0 21.0304 6.48992 27.0937 14.5 27.0937C22.5101 27.0937 29 21.0304 29 13.5469C29 6.06332 22.5101 0 14.5 0ZM21.6097 17.1029C21.8845 17.3597 21.8845 17.7748 21.6097 18.0315L19.2944 20.1892C19.0196 20.4459 18.5752 20.4459 18.3004 20.1892L14.5 16.6058L10.6937 20.1892C10.419 20.4459 9.9746 20.4459 9.6998 20.1892L7.39032 18.0261C7.11552 17.7693 7.11552 17.3542 7.39032 17.0975L11.2258 13.5469L7.39032 9.99082C7.11552 9.73408 7.11552 9.31894 7.39032 9.0622L9.70565 6.89907C9.98044 6.64234 10.4248 6.64234 10.6996 6.89907L14.5 10.4879L18.3063 6.90454C18.581 6.6478 19.0254 6.6478 19.3002 6.90454L21.6155 9.06767C21.8903 9.3244 21.8903 9.73955 21.6155 9.99628L17.7742 13.5469L21.6097 17.1029Z" fill="white"/>
</svg>
