<svg width="23" height="20" viewBox="0 0 23 20" fill="none" xmlns="http://www.w3.org/2000/svg">
<path d="M16.0214 3.36205L19.4273 6.67481C19.5708 6.81437 19.5708 7.04208 19.4273 7.18164L11.1806 15.2028L7.67648 15.5811C7.20826 15.6325 6.81179 15.2468 6.86465 14.7914L7.25357 11.3832L15.5003 3.36205C15.6438 3.22249 15.8779 3.22249 16.0214 3.36205ZM22.1384 2.52101L20.2957 0.728744C19.7218 0.170497 18.7891 0.170497 18.2114 0.728744L16.8747 2.02887C16.7312 2.16843 16.7312 2.39614 16.8747 2.5357L20.2806 5.84846C20.4241 5.98802 20.6582 5.98802 20.8017 5.84846L22.1384 4.54833C22.7124 3.98641 22.7124 3.07926 22.1384 2.52101ZM15.319 13.0212V16.76H3.23595V5.00741H11.9131C12.0339 5.00741 12.1472 4.95967 12.2341 4.87887L13.7444 3.4098C14.0314 3.13068 13.8275 2.6569 13.4235 2.6569H2.6318C1.63117 2.6569 0.819336 3.44653 0.819336 4.41979V17.3476C0.819336 18.3209 1.63117 19.1105 2.6318 19.1105H15.9232C16.9238 19.1105 17.7356 18.3209 17.7356 17.3476V11.5521C17.7356 11.1591 17.2485 10.9645 16.9616 11.2399L15.4512 12.709C15.3681 12.7935 15.319 12.9037 15.319 13.0212Z" fill="white"/>
</svg>
